<svg width="31" height="31" viewBox="0 0 31 31" fill="none" xmlns="http://www.w3.org/2000/svg">
<g clip-path="url(#clip0_1110_2216)">
<path d="M15.5065 31.0129C24.0704 31.0129 31.0129 24.0704 31.0129 15.5065C31.0129 6.94248 24.0704 0 15.5065 0C6.94248 0 0 6.94248 0 15.5065C0 24.0704 6.94248 31.0129 15.5065 31.0129Z" fill="url(#paint0_linear_1110_2216)"/>
<path fill-rule="evenodd" clip-rule="evenodd" d="M7.01078 15.3384C11.5297 13.3759 14.5381 12.0719 16.0487 11.4392C20.3481 9.64456 21.2519 9.33469 21.8329 9.32178C21.962 9.32178 22.2461 9.3476 22.4398 9.50254C22.5947 9.63165 22.6334 9.7995 22.6593 9.92861C22.6851 10.0577 22.7109 10.3289 22.6851 10.5354C22.4527 12.9886 21.4456 18.9407 20.9291 21.6779C20.7097 22.8399 20.2836 23.2272 19.8704 23.266C18.9666 23.3434 18.2823 22.672 17.4173 22.104C16.0487 21.2131 15.2869 20.6579 13.957 19.7799C12.4206 18.7728 13.4148 18.2177 14.2927 17.3139C14.5251 17.0815 18.4889 13.4663 18.5664 13.1435C18.5793 13.1048 18.5793 12.9498 18.4889 12.8724C18.3985 12.7949 18.2694 12.8207 18.1661 12.8466C18.0241 12.8724 15.855 14.3184 11.633 17.1718C11.0133 17.5979 10.4581 17.8045 9.95455 17.7916C9.39936 17.7787 8.34064 17.4817 7.54014 17.2235C6.57179 16.9136 5.79712 16.7458 5.86167 16.2035C5.90041 15.9194 6.28774 15.6354 7.01078 15.3384Z" fill="white"/>
</g>
<defs>
<linearGradient id="paint0_linear_1110_2216" x1="15.4935" y1="0" x2="15.4935" y2="30.7676" gradientUnits="userSpaceOnUse">
<stop stop-color="#2AABEE"/>
<stop offset="1" stop-color="#229ED9"/>
</linearGradient>
<clipPath id="clip0_1110_2216">
<rect width="31" height="31" fill="white"/>
</clipPath>
</defs>
</svg>
